c393b9c7e035ce7fbe25fe47e04bffb26862228ba185ee40308b1a9015d73010  dive_0.10.0_linux_amd64.rpm
8b29af782887be4919fe3ba87ad10203f9e1bce2e9a8c94b3dff0881945758ab  dive_0.10.0_linux_amd64.deb
9541997876d4985de66d0fa5924dac72258a3094ef7d3f6ef5fa5dcf6f6a47ad  dive_0.10.0_linux_amd64.tar.gz
e88cf463b48d9edc22f71b63d43f076826f32f6777ac9a8d288dd3dd8f0599e3  dive_0.10.0_windows_amd64.zip
b4cad081146defcb90b418215cdfdf835372abd4adf1b0f33aaf1ea5d9bb3244  dive_0.10.0_darwin_amd64.tar.gz
